MembershipNo,Membership Since (CourseEndDate),MembershipStatus,Salutation,MemberFirstName,MemberMiddleName,MemberLastName,Address1,Address2,City,State,ZipCode,Country,Email1,Email2,WorkNumber,CellNumber,Job Title,Company Name,Gender,ClassType,CourseName,CourseAbbre,CourseStartDate,CourseEnd Date,CourseYr,Exam Date,CourseLocation,CourseProvider,PrimaryInstructor,CertType,CertificationNumber,CertExpDate,Referral Source,ExamScore
100718,,,Mr.,Brian,,Zawada,"1220 W 6th Street, Suite 307",,Cleveland,OH,44113,USA,brian.zawada@avalution.com,,866.533.0575,,Director of Consulting,Avalution Consulting,M,,,,,,,,,,,"MBCI, MBCP",,,,
100719,,,Mr.,Robert,,Giffin,"1220 W 6th Street, Suite 307",,Cleveland,OH,44113,USA,robert.giffin@avalution.com,,866.533.0575,,Director of Technology,Avalution Consulting,M,,,,,,,,,,,"CBCP, CISA",,,,
100720,,,Mr.,Glen,,Bricker,10459 Virginia Rail Terrace,,Providence Forge,VA,23140,USA,glen.bricker@avalution.com,,866.533.0575,,Managing Consultant,Avalution Consulting,M,,,,,,,,,,,"MBCI, CBCP",,,,
