MembershipNo,Membership Since (CourseEndDate),MembershipStatus,Salutation,MemberFirstName,MemberMiddleName,MemberLastName,Address1,Address2,City,State,ZipCode,Country,Email1,Email2,WorkNumber,CellNumber,Job Title,Company Name,Gender,ClassType,CourseName,CourseAbbre,CourseStartDate,CourseEnd Date,CourseYr,Exam Date,CourseLocation,CourseProvider,PrimaryInstructor,CertType,CertificationNumber,CertExpDate,Referral Source,ExamScore
100597,6/17/2011,Full,Mr,Samar,Bassam,Al-Fatayn,Hamra-Wardiah Square,,Beirut,,,Lebanon,sfatayn@mubs.edu.lb,samarfatayn@gmail.com,,9613700421,Instructor,MUBS,M,Public,Holistic Information Security Practitioner,HISP,6/13/2011,6/17/2011,2011,6/17/2011,"Beirut, Lebanon",eFortresses,John DiMaria,Pass,HISP100597-06-2011,6/17/2014,eFortresses,90
100598,6/17/2011,Full,Mr,Paul,Ghassan,Bouchaaya,,,Yarzeh,,,Lebanon,bouchaaya@live.com,,,9613632662,Lieutenant Engineer,Lebanese Army,M,Public,Holistic Information Security Practitioner,HISP,6/13/2011,6/17/2011,2011,6/17/2011,"Beirut, Lebanon",eFortresses,John DiMaria,Pass,HISP100598-06-2011,6/17/2014,eFortresses,77
100599,6/17/2011,Full,Mr,Amer,Ahmad,Hamade,Main St.,,Sibline,,,Lebanon,ahamade@scs.com.lb,,970097,3362931,Quality and Safety Specialist,Ciment De Sibline,M,Public,Holistic Information Security Practitioner,HISP,6/13/2011,6/17/2011,2011,6/17/2011,"Beirut, Lebanon",eFortresses,John DiMaria,Fail,HISP100599-06-2011,6/17/2014,eFortresses,63
100600,6/17/2011,Full,Ms,Josette,Aoun,Klink,Turnel Chebbak,,Pine Bldg,,,Lebanon,josette.klink@alfamobile.com.lb,josette.klink@gmail.com,9613391815,6313399951,Head of IT Infrastructure,Alfa,F,Public,Holistic Information Security Practitioner,HISP,6/13/2011,6/17/2011,2011,6/17/2011,"Beirut, Lebanon",eFortresses,John DiMaria,Pass,HISP100600-06-2011,6/17/2014,eFortresses,77
100601,6/17/2011,Full,Mr,Haman,Ahmad,Majed,Dora Highway,,Beirut,,,Lebanon,hamammajed82@gmail.com,,9611255255,9613294279,Head of Security,Federal Bank of Lebanon,M,Public,Holistic Information Security Practitioner,HISP,6/13/2011,6/17/2011,2011,6/17/2011,"Beirut, Lebanon",eFortresses,John DiMaria,Pass,HISP100601-06-2011,6/17/2014,eFortresses,83
100602,6/17/2011,Full,Mr,Ghazi,Antoun,Mouawas,Ministry of Defense - Yarzg,,,,,Lebanon,ghazy.mouawad@hotmail.com,,5541217,3112232,B General,Lebanese Army,M,Public,Holistic Information Security Practitioner,HISP,6/13/2011,6/17/2011,2011,6/17/2011,"Beirut, Lebanon",eFortresses,John DiMaria,Pass,HISP100602-06-2011,6/17/2014,eFortresses,80
100603,6/17/2011,Full,Mr,Elie,Ghassan,Naoum,Shayma,,Hagmich,,,Lebanon,elie.naoum@gmail.com,,96103591525,,Lieutenant Engineer,Lebanese Army,M,Public,Holistic Information Security Practitioner,HISP,6/13/2011,6/17/2011,2011,6/17/2011,"Beirut, Lebanon",eFortresses,John DiMaria,Fail,HISP100603-06-2011,6/17/2014,eFortresses,69
100604,6/17/2011,Full,Mr,Ali,Khalil,Termos,,,Beirut,,,Lebanon,atermos@mubs.edu.lb,,,96170910362,Instructor,MUBS,M,Public,Holistic Information Security Practitioner,HISP,6/13/2011,6/17/2011,2011,6/17/2011,"Beirut, Lebanon",eFortresses,John DiMaria,Pass,HISP100604-06-2011,6/17/2014,eFortresses,85
100605,6/17/2011,Full,Mr,Rajhid,Mohamad,Youssef,Main Street,,Sibline,,,Lebanon,ryoussef@scs.com.lb,raghidy@hotmail.com,7970112,71211655,,Ciment De Sibline,M,Public,Holistic Information Security Practitioner,HISP,6/13/2011,6/17/2011,2011,6/17/2011,"Beirut, Lebanon",eFortresses,John DiMaria,Pass,HISP100605-06-2011,6/17/2014,eFortresses,75
