MembershipNo,Membership Since (CourseEndDate),MembershipStatus,Salutation,MemberFirstName,MemberMiddleName,MemberLastName,Address1,Address2,City,State,ZipCode,Country,Email1,Email2,WorkNumber,CellNumber,Job Title,Company Name,Gender,ClassType,CourseName,CourseAbbre,CourseStartDate,CourseEnd Date,CourseYr,Exam Date,CourseLocation,CourseProvider,PrimaryInstructor,CertType,CertificationNumber,CertExpDate,Referral Source,ExamScore
100930,1/27/2015,Full,Mr,Mark,,Mutic,,,,,,USA,mmutic@yahoo.com,,,,,Avanade,M,Private,HISP,Holistic Information Security Practitioner,1/26/2015,1/30/2015,2015,1/30/2015,"Seattle, WA",Avanade,Taiye Lambo,Passed,HISPI100930-02-2015,2/6/2018,Avanade,84
100937,1/30/2015,Full,Mr,Jeff,,Van Wingerden,11201 Lake Ridge Drive South,,Seattle,WA,98178,USA,vanwingerdenjeff@gmail.com,,206-430-0024,,,Avanade,M,Private,HISP,Holistic Information Security Practitioner,1/26/2015,1/30/2015,2015,1/30/2015,"Seattle, WA",Avanade,Taiye Lambo,Passed,HISPI100937-02-2015,2/6/2018,Avanade,93
100938,1/30/2015,Full,Mr,Drazen,,Doutlik,818 Stewart Street ,Suite 400,Seattle,Wa,98101,USA,doutld@gmail.com,,509 308 5721,,Sr. Analyst,Avanade,M,Private,HISP,Holistic Information Security Practitioner,1/26/2015,1/30/2015,2015,1/30/2015,"Seattle, WA",Avanade,Taiye Lambo,Passed,HISPI100938-02-2015,2/6/2018,Avanade,96
100940,1/30/2015,Full,Mr,Adam,,Metzler,1910 Fairview Ave E,,Seattle,WA,98102,USA,metzleran@gmail.com,,,,Sr. Consultant,Avanade,M,Private,HISP,Holistic Information Security Practitioner,1/26/2015,1/30/2015,2015,1/30/2015,"Seattle, WA",Avanade,Taiye Lambo,Passed,HISPI100940-02-2015,2/6/2018,Avanade,79
