MembershipNo,Membership Since (CourseEndDate),MembershipStatus,Salutation,MemberFirstName,MemberMiddleName,MemberLastName,Address1,Address2,City,State,ZipCode,Country,Email1,Email2,WorkNumber,CellNumber,Job Title,Company Name,Gender,ClassType,CourseName,CourseAbbre,CourseStartDate,CourseEnd Date,CourseYr,Exam Date,CourseLocation,CourseProvider,PrimaryInstructor,CertType,CertificationNumber,CertExpDate,Referral Source,ExamScore
100700,11/15/2011,Full,Mr. ,Jeremy,C,Conger,1009 Crest Place,,Kent,WA,96031,USA,jeremy.conger@kingcounty.gov,jeremy.conger@gmail.com,206-296-9706,,Systems Administrator,King County ,M,Private,Holistic Information Security Practitioner,HISP,11/2/2011,11/10/2011,2011,11/15/2011,"Seattle, WA",King County,Ralph Johnson,Pass,HISPI100700-11-2011,11/11/2014,King County,86
100701,11/15/2011,Full,Mr. ,Wyatt,C,Yee,401 5th Ave,Suite 400,Seattle,WA,98104,USA,wyatt.yee@kingcounty.gov,,206-263-8915,,IT Services Manager I,King County ,M,Private,Holistic Information Security Practitioner,HISP,11/2/2011,11/10/2011,2011,11/15/2011,"Seattle, WA",King County,Ralph Johnson,Pass,HISPI100701-11-2011,11/11/2014,King County,85
