MembershipNo,Membership Since (CourseEndDate),MembershipStatus,Salutation,MemberFirstName,MemberMiddleName,MemberLastName,Address1,Address2,City,State,ZipCode,Country,Email1,Email2,WorkNumber,CellNumber,Job Title,Company Name,Gender,ClassType,CourseName,CourseAbbre,CourseStartDate,CourseEnd Date,CourseYr,Exam Date,CourseLocation,CourseProvider,PrimaryInstructor,CertType,CertificationNumber,CertExpDate,Referral Source,ExamScore
100755,6/12/2012,Full,Mr.,Kenton,LaMar,Brown,151 N 40th St. ,,Newark,OH,43055,USA,klbrown@parknationalbank.com,,740-349-0045,740-334-0035,Sys Sec Supervisor,Park National Bank,M,Public,Holistic Information Security Practitioner,HISPI,8/20/2012,8/22/2012,2012,8/22/2012,"Independence, OH",ASMGI,Gary Sheehan,Pass,HISPI100755-6-12,8/22/2015,ASMGI,82
100765,8/22/2012,Full,Mr.,David,Brian,Murnan,32591 Walker,,Avon Lake,OH,44012,USA,david.b.murnan@nasa.gov,dbmurnan@gmail.com,,440-714-7848,Sr. Security Consultant,Verizon,M,Public,Holistic Information Security Practitioner,HISPI,8/20/2012,8/22/2012,2012,8/22/2012,"Independence, OH",ASMGI,Gary Sheehan,Pass,HISPI100765-8-12,8/22/2015,ASMGI,84
100766,8/22/2012,Full,Ms.,Barbara,Susanne,Walker,13940 Cedar Rd,#433,University Hts,OH,44118,USA,barbara.walker@polyone.com,,440-930-1194,440-752-9938,"Director, Global IT Security and Compliance",Polyone Corporation,F,Public,Holistic Information Security Practitioner,HISPI,8/20/2012,8/22/2012,2012,8/22/2012,"Independence, OH",ASMGI,Gary Sheehan,Pass,HISPI100766-6-12,8/22/2015,ASMGI,87
